6 Natalie – R Training 2025
…
read_delim(files_list[4], delim='\t', show_col_types = F)

# A tibble: 126 × 10
   trial_number cb_trial image_name prac_or_not number letcase loctyp sameord  
          <dbl> <chr>    <chr>      <chr>        <dbl>   <dbl>  <dbl> <chr>    
 1            1 A        kl3.jpg    PRAC            42       1      4 0        
 2            2 A        cl3.jpg    PRAC            38       1      4 0        
 3            3 A        ku5.jpg    PRAC            72       2      6 0        
 4            4 A        ku3.jpg    PRAC            48       2      4 SAME     
 5            5 A        bl2.jpg    PRAC            25       1      3 DIFFERENT
 6            6 A        cl0.jpg    PRAC             2       1      1 DIFFERENT
 7            7 A        dl4.jpg    PRAC            51       1      5 DIFFERENT
 8            8 A        ju2.jpg    PRAC            35       2      3 SAME     
 9            9 A        cu0.jpg    PRAC             8       2      1 SAME     
10           10 A        dl5.jpg    PRAC            63       1      6 DIFFERENT
# ℹ 116 more rows
# ℹ 2 more variables: expected_button <dbl>, RESPONSE_MOUSE <dbl>
…
